<?xml version="1.0" encoding="UTF-8" standalone="no"?>
<svg width="61px" height="33px" viewBox="0 0 61 33" version="1.1" xmlns="http://www.w3.org/2000/svg" xmlns:xlink="http://www.w3.org/1999/xlink">
    <!-- Generator: Sketch 3.8.3 (29802) - http://www.bohemiancoding.com/sketch -->
    <title>Rectangle 80</title>
    <desc>Created with Sketch.</desc>
    <defs>
        <path d="M628.890734,79.5498436 L237.980001,79.5498436 C234.66742,79.5498436 231.992874,82.236392 231.999064,85.5504174 L233.090882,670.052351 C233.097061,673.360562 235.784865,676.052925 239.094236,676.052925 L786.020142,676.052925 C789.332722,676.052925 792.007269,673.366376 792.001079,670.052351 L790.909261,85.5504174 C790.903081,82.2422065 788.215277,79.5498436 784.905907,79.5498436 L690.016125,79.5498436 L662.300405,52.0818679 C660.727942,50.5234613 658.178795,50.5235815 656.606454,52.0818679 L628.890734,79.5498436 Z" id="path-1"></path>
        <filter x="-50%" y="-50%" width="200%" height="200%" filterUnits="objectBoundingBox" id="filter-2">
            <feOffset dx="0" dy="2" in="SourceAlpha" result="shadowOffsetOuter1"></feOffset>
            <feGaussianBlur stdDeviation="2" in="shadowOffsetOuter1" result="shadowBlurOuter1"></feGaussianBlur>
            <feComposite in="shadowBlurOuter1" in2="SourceAlpha" operator="out" result="shadowBlurOuter1"></feComposite>
            <feColorMatrix values="0 0 0 0 0   0 0 0 0 0   0 0 0 0 0  0 0 0 0.5 0" type="matrix" in="shadowBlurOuter1"></feColorMatrix>
        </filter>
        <mask id="mask-3" maskContentUnits="userSpaceOnUse" maskUnits="objectBoundingBox" x="0" y="0" width="560.002036" height="625.139817" fill="white">
            <use xlink:href="#path-1"></use>
        </mask>
    </defs>
    <g id="Sprint-2---Desktop" stroke="none" stroke-width="1" fill="none" fill-rule="evenodd">
        <g id="First-Use-Tour---Navigation" transform="translate(-629.000000, -47.000000)">
            <g id="Rectangle-80">
                <use fill="black" fill-opacity="1" filter="url(#filter-2)" xlink:href="#path-1"></use>
                <use stroke="#979797" mask="url(#mask-3)" stroke-width="2" fill="#FAF9F7" fill-rule="evenodd" xlink:href="#path-1"></use>
            </g>
        </g>
    </g>
</svg>