<?xml version="1.0" encoding="UTF-8" standalone="no"?>
<svg width="41px" height="76px" viewBox="0 0 41 76" version="1.1" xmlns="http://www.w3.org/2000/svg" xmlns:xlink="http://www.w3.org/1999/xlink">
    <!-- Generator: Sketch 3.8.3 (29802) - http://www.bohemiancoding.com/sketch -->
    <title>arrowbox</title>
    <desc>Created with Sketch.</desc>
    <defs>
        <path d="M635.909813,78.7921151 L670.933125,44.0818679 C672.505466,42.5235815 675.054614,42.5234613 676.627076,44.0818679 L711.650388,78.7921151" id="path-1"></path>
        <filter x="-50%" y="-50%" width="200%" height="200%" filterUnits="objectBoundingBox" id="filter-2">
            <feOffset dx="0" dy="-2" in="SourceAlpha" result="shadowOffsetOuter1"></feOffset>
            <feGaussianBlur stdDeviation="2" in="shadowOffsetOuter1" result="shadowBlurOuter1"></feGaussianBlur>
            <feComposite in="shadowBlurOuter1" in2="SourceAlpha" operator="out" result="shadowBlurOuter1"></feComposite>
            <feColorMatrix values="0 0 0 0 0   0 0 0 0 0   0 0 0 0 0  0 0 0 0.100000001 0" type="matrix" in="shadowBlurOuter1"></feColorMatrix>
        </filter>
        <mask id="mask-3" maskContentUnits="userSpaceOnUse" maskUnits="objectBoundingBox" x="0" y="0" width="75.7405751" height="35.8790071" fill="white">
            <use xlink:href="#path-1"></use>
        </mask>
    </defs>
    <g id="Page-1" stroke="none" stroke-width="1" fill="none" fill-rule="evenodd">
        <g id="First-Use-Tour---Navigation" transform="translate(-650.000000, -23.000000)">
            <g id="arrowbox" transform="translate(673.780101, 60.852612) scale(-1, 1) rotate(90.000000) translate(-673.780101, -60.852612) ">
                <use fill="black" fill-opacity="1" filter="url(#filter-2)" xlink:href="#path-1"></use>
                <use stroke="#979797" mask="url(#mask-3)" stroke-width="2" fill="#FAF9F7" fill-rule="evenodd" xlink:href="#path-1"></use>
            </g>
        </g>
    </g>
</svg>