<?xml version="1.0" encoding="utf-8"?>
<!-- Generator: Adobe Illustrator 18.1.1, SVG Export Plug-In . SVG Version: 6.00 Build 0)  -->
<svg version="1.1" xmlns="http://www.w3.org/2000/svg" xmlns:xlink="http://www.w3.org/1999/xlink" x="0px" y="0px" width="16px"
	 height="16px" viewBox="0 0 16 16" enable-background="new 0 0 16 16" xml:space="preserve">
<g id="select" display="none">
	<polygon display="inline" fill="#CCCCCC" points="3.5,5.6 12.5,5.6 8,10.8 	"/>
</g>
<g id="select-over" display="none">
	<polygon display="inline" fill="#8F8F8F" points="3.6,5.6 12.6,5.6 8.1,10.8 	"/>
</g>
<g id="Layer_5">
	<g>
		<path fill="#8F8F8F" d="M4,7.1l3.5,3.5c0,0,0,0,0,0c0.2,0.2,0.4,0.2,0.6,0.2c0.2,0,0.4-0.1,0.6-0.2c0,0,0,0,0,0l3.5-3.5
			c0.3-0.3,0.3-0.9,0-1.2c-0.3-0.3-0.9-0.3-1.2,0L8,8.8L5.2,5.9C4.8,5.6,4.3,5.6,4,5.9C3.6,6.2,3.6,6.7,4,7.1z"/>
	</g>
</g>
</svg>
