<?xml version="1.0" encoding="UTF-8" standalone="no"?>
<svg width="61px" height="31px" viewBox="0 0 61 31" version="1.1" xmlns="http://www.w3.org/2000/svg" xmlns:xlink="http://www.w3.org/1999/xlink">
    <!-- Generator: Sketch 3.8.3 (29802) - http://www.bohemiancoding.com/sketch -->
    <title>Rectangle 80</title>
    <desc>Created with Sketch.</desc>
    <defs>
        <path d="M-0.108707378,30.6447052 L-391.019441,30.6447052 C-394.332021,30.6447052 -397.006394,33.3308278 -396.999989,36.6443278 L-395.908948,601.059643 C-395.902535,604.377269 -393.214576,607.059265 -389.905206,607.059265 L157.020701,607.059265 C160.333281,607.059265 163.007653,604.373143 163.001248,601.059643 L161.910208,36.6443278 C161.903795,33.3267011 159.215836,30.6447052 155.906465,30.6447052 L61.0166832,30.6447052 L33.3496314,4.14838107 C31.7511932,2.61758057 29.1575641,2.61683209 27.5583444,4.14838107 L-0.108707378,30.6447052 Z" id="path-1"></path>
        <filter x="-50%" y="-50%" width="200%" height="200%" filterUnits="objectBoundingBox" id="filter-2">
            <feOffset dx="0" dy="2" in="SourceAlpha" result="shadowOffsetOuter1"></feOffset>
            <feGaussianBlur stdDeviation="2" in="shadowOffsetOuter1" result="shadowBlurOuter1"></feGaussianBlur>
            <feComposite in="shadowBlurOuter1" in2="SourceAlpha" operator="out" result="shadowBlurOuter1"></feComposite>
            <feColorMatrix values="0 0 0 0 0   0 0 0 0 0   0 0 0 0 0  0 0 0 0.5 0" type="matrix" in="shadowBlurOuter1"></feColorMatrix>
        </filter>
        <mask id="mask-3" maskContentUnits="userSpaceOnUse" maskUnits="objectBoundingBox" x="0" y="0" width="560.00126" height="604.059265" fill="white">
            <use xlink:href="#path-1"></use>
        </mask>
    </defs>
    <g id="Sprint-2---Desktop" stroke="none" stroke-width="1" fill="none" fill-rule="evenodd">
        <g id="Rectangle-80">
            <use fill="black" fill-opacity="1" filter="url(#filter-2)" xlink:href="#path-1"></use>
            <use stroke="#979797" mask="url(#mask-3)" stroke-width="2" fill="#FFFFFF" fill-rule="evenodd" xlink:href="#path-1"></use>
        </g>
    </g>
</svg>