{
    "kirana": {
        "settings": {
            "allMessage": "",
            "allTitle": "",
            "apprenewmerchantkey": "rzp_live_ZZ7TvFZygUdFOv",
            "apprenewmerchantname": "Ideasyogi",
            "appurl": "https://play.google.com/store/apps/details?id=com.yogi.bhandhanv2",
            "appversion": "1.6.7",
            "authkey": "",
            "camera": "",
            "checkoutordermsg": "Great purchase",
            "deliverycharges": 20,
            "deliveryclientnamelive": "",
            "deliveryclientnametest": "",
            "deliveryenabled": false,
            "deliverytokenlive": "",
            "deliverytokentest": "",
            "domainurl": "kiranagali.co.in",
            "emailverification": false,
            "freedelivery": false,
            "freedeliveryamount": 100,
            "freedeliveryoveramount": true,
            "iMessage": "",
            "iTitle": "",
            "invitationmessage": "",
            "invitemessage": "You are invited to join ShopWala platform, the online shopping portal in your Area, to serve better. Download Android APP for free better communication https://play.google.com/store/apps/details?id=com.ionicframework.kg",
            "istvp": false,
            "mMessage": "You are using 1.6.7 app",
            "mandatory": false,
            "platformname": "Online Selling Platform",
            "merchant": "merchant",
            "merchantkey": "rzp_test_H4yc3Q88RbeIgC",
            "merchantname": "Test Merchant",
            "newApp": false,
            "newappmessage": "New version of APP has been pushed please use it",
            "noonlinepay": true,
            "offercod": false,
            "oncallsupport": "",
            "oncallwhatsappsupport": "",
            "onlinepay": true,
            "onlyhomepickup": true,
            "onlystorepickup": false,
            "payment": false,
            "paymenton": false,
            "pendingMessage": "",
            "ptmmerchantid": "gCwrsu78509105617274",
            "ptmmerchantkey": "",
            "sendsms": false,
            "sendsmsbackground": false,
            "shoplandingmsg": "",
            "shopname": "Online Orders",
            "stoporders": false,
            "stopordersmessage": "We had stop taking orders now due to heavy load",
            "supportcall": "xxx",
            "testdelivery": true,
            "testonlinepay": true,
            "url": "",
            "usepaytm": false,
            "userazorpay": true,
            "version": "1.6.7",
            "warehouse": ""
        },
        "shop": {
            "brands": {
                "-M4rLO3LpZiJIv-PbhoO": {
                    "active": true,
                    "description": "best brand",
                    "image": "https://ik.imagekit.io/ideasyogi/assets/novelty/brands/PARLE.jpg",
                    "imageuploaded": true,
                    "title": "PARLE",
                    "updatedBy": "DSIGLK4EEXN7bu4BW0FutkCWBFw2",
                    "uploaded": false
                },
                "-M5QU8uqyq-M2QhLp2dW": {
                    "active": true,
                    "description": "",
                    "image": "https://encrypted-tbn0.gstatic.com/images?q=tbn:ANd9GcRPhkh9Xqi_n_rVK81A0JcKu_djQNU6yA3QkeE9Y7vufzAP1sqszQ&s",
                    "imageuploaded": true,
                    "title": "NESTLE",
                    "updatedBy": "DSIGLK4EEXN7bu4BW0FutkCWBFw2",
                    "uploaded": false
                },
                "-M5QUL7ZJ8Uy0-J67Qf8": {
                    "active": true,
                    "description": "",
                    "image": "https://encrypted-tbn0.gstatic.com/images?q=tbn%3AANd9GcTx-gHofb-xQ8ZgZXgoZe7NCN4JNhO8GaVHUkeYM-vpz4I-80wo&usqp=CAU",
                    "imageuploaded": true,
                    "title": "COLGATE",
                    "updatedBy": "DSIGLK4EEXN7bu4BW0FutkCWBFw2",
                    "uploaded": false
                },
                "-M5QURBBpsJ6MH-gYuHu": {
                    "active": true,
                    "description": "",
                    "image": "https://ik.imagekit.io/ideasyogi/assets/novelty/brands/AMUL.jpg",
                    "imageuploaded": true,
                    "title": "AMUL",
                    "updatedBy": "DSIGLK4EEXN7bu4BW0FutkCWBFw2",
                    "uploaded": false
                },
                "-M5QUUGv5yWVZxaTnyBl": {
                    "active": true,
                    "description": "",
                    "image": "https://encrypted-tbn0.gstatic.com/images?q=tbn%3AANd9GcSGeGto3ExR0PDvgWl-mscBwwRAhN3oVA4os6MtCt7k9_S7MDA5&usqp=CAU",
                    "imageuploaded": true,
                    "title": "HALDIRAM",
                    "updatedBy": "DSIGLK4EEXN7bu4BW0FutkCWBFw2",
                    "uploaded": false
                },
                "-M5QUWnqL4lnVRK4u6JE": {
                    "active": true,
                    "description": "",
                    "image": "https://encrypted-tbn0.gstatic.com/images?q=tbn%3AANd9GcS7rKp3AMLNRqZOr8xgn90MtPTBgYxUe6c6AG-R5UHqk4kooit7&usqp=CAU",
                    "imageuploaded": true,
                    "title": "LIJJAT",
                    "updatedBy": "DSIGLK4EEXN7bu4BW0FutkCWBFw2",
                    "uploaded": false
                },
                "-M5QUZ2dq7d4orSKGnxc": {
                    "active": true,
                    "description": "",
                    "image": "https://encrypted-tbn0.gstatic.com/images?q=tbn%3AANd9GcS5DXX_xWeoYRWdbVlMaB8vF2RjZ2heailiZQXZp9HiReF7A7T0&usqp=CAU",
                    "imageuploaded": true,
                    "title": "MTR",
                    "updatedBy": "DSIGLK4EEXN7bu4BW0FutkCWBFw2",
                    "uploaded": false
                },
                "-M5QUpEtWCbjYdRaOa98": {
                    "active": true,
                    "description": "",
                    "image": "https://encrypted-tbn0.gstatic.com/images?q=tbn%3AANd9GcQMm4VltXP-ap_EvGlZJLjzwqVlLcnKCpRFHgsY3DMDXJGBtzRU&usqp=CAU",
                    "imageuploaded": true,
                    "title": "LAYS",
                    "updatedBy": "DSIGLK4EEXN7bu4BW0FutkCWBFw2",
                    "uploaded": false
                },
                "-M5QV2h6_OT9_RBHvmPW": {
                    "active": true,
                    "description": "",
                    "image": "https://ik.imagekit.io/ideasyogi/assets/novelty/brands/PATANJALI.jpg",
                    "imageuploaded": true,
                    "title": "PATANJALI",
                    "updatedBy": "DSIGLK4EEXN7bu4BW0FutkCWBFw2",
                    "uploaded": false
                },
                "-M5QZZGdn8zREBiZIIzD": {
                    "active": true,
                    "description": "",
                    "image": "https://encrypted-tbn0.gstatic.com/images?q=tbn%3AANd9GcSNeTYM3S-bsbYSB4HenYTQesz1Cy2Do3tYeppiRVquuZtb0BYo&usqp=CAU",
                    "imageuploaded": true,
                    "title": "BROOK BOND",
                    "updatedBy": "DSIGLK4EEXN7bu4BW0FutkCWBFw2",
                    "uploaded": false
                },
                "-M5pMhCPTyCK3tcWyzvp": {
                    "active": true,
                    "description": "",
                    "image": "https://ik.imagekit.io/ideasyogi/assets/novelty/brands/LAKME.jpg",
                    "imageuploaded": true,
                    "title": "LAKME",
                    "updatedBy": "DSIGLK4EEXN7bu4BW0FutkCWBFw2",
                    "uploaded": false
                },
                "-M7xKOk302pWSt9zrNaU": {
                    "active": true,
                    "createdBy": "DSIGLK4EEXN7bu4BW0FutkCWBFw2",
                    "description": "",
                    "image": "https://ik.imagekit.io/ideasyogi/assets/novelty/brands/ASHOK MASALE.jpg",
                    "imageuploaded": true,
                    "title": "ASHOK MASALE",
                    "uploaded": false
                },
                "-M7xKOkAtZMLHKHBOdij": {
                    "active": true,
                    "createdBy": "DSIGLK4EEXN7bu4BW0FutkCWBFw2",
                    "description": "",
                    "image": "https://ik.imagekit.io/ideasyogi/assets/novelty/brands/AYUR.jpg",
                    "imageuploaded": true,
                    "title": "AYUR",
                    "uploaded": false
                },
                "-M7xKOkFcW6yxvKNAJM0": {
                    "active": true,
                    "createdBy": "DSIGLK4EEXN7bu4BW0FutkCWBFw2",
                    "description": "",
                    "image": "https://ik.imagekit.io/ideasyogi/assets/novelty/brands/BRITANNIA.jpg",
                    "imageuploaded": true,
                    "title": "BRITANNIA",
                    "uploaded": false
                },
                "-M7xKOkL1gvmj-ACsW8d": {
                    "active": true,
                    "createdBy": "DSIGLK4EEXN7bu4BW0FutkCWBFw2",
                    "description": "",
                    "image": "https://ik.imagekit.io/ideasyogi/assets/novelty/brands/CADBURY.jpg",
                    "imageuploaded": true,
                    "title": "CADBURY",
                    "uploaded": false
                },
                "-M7xKOkQvkjoCFSCl19U": {
                    "active": true,
                    "createdBy": "DSIGLK4EEXN7bu4BW0FutkCWBFw2",
                    "description": "",
                    "image": "https://ik.imagekit.io/ideasyogi/assets/novelty/brands/CELLO.jpg",
                    "imageuploaded": true,
                    "title": "CELLO",
                    "uploaded": false
                },
                "-M7xKOkU4fg7pBdltZnP": {
                    "active": true,
                    "createdBy": "DSIGLK4EEXN7bu4BW0FutkCWBFw2",
                    "description": "",
                    "image": "https://ik.imagekit.io/ideasyogi/assets/novelty/brands/DABUR.jpg",
                    "imageuploaded": true,
                    "title": "DABUR",
                    "uploaded": false
                },
                "-M7xKOkYIv-_j_HcGLGb": {
                    "active": true,
                    "createdBy": "DSIGLK4EEXN7bu4BW0FutkCWBFw2",
                    "description": "",
                    "image": "https://ik.imagekit.io/ideasyogi/assets/novelty/brands/DHARA.jpg",
                    "imageuploaded": true,
                    "title": "DHARA",
                    "uploaded": false
                },
                "-M7xKOkb-MtnDV5QMQIw": {
                    "active": true,
                    "createdBy": "DSIGLK4EEXN7bu4BW0FutkCWBFw2",
                    "description": "",
                    "image": "https://ik.imagekit.io/ideasyogi/assets/novelty/brands/DENVER.jpg",
                    "imageuploaded": true,
                    "title": "DENVER",
                    "uploaded": false
                },
                "-M7xKOkeb1_zimWGCXF3": {
                    "active": true,
                    "createdBy": "DSIGLK4EEXN7bu4BW0FutkCWBFw2",
                    "description": "",
                    "image": "https://ik.imagekit.io/ideasyogi/assets/novelty/brands/EVA.jpg",
                    "imageuploaded": true,
                    "title": "EVA",
                    "uploaded": false
                },
                "-M7xKOkhOZ9Xtn4mmwhh": {
                    "active": true,
                    "createdBy": "DSIGLK4EEXN7bu4BW0FutkCWBFw2",
                    "description": "",
                    "image": "https://ik.imagekit.io/ideasyogi/assets/novelty/brands/EVERYOUTH.jpg",
                    "imageuploaded": true,
                    "title": "EVERYOUTH",
                    "uploaded": false
                },
                "-M7xKOklSWON43LUNzz2": {
                    "active": true,
                    "createdBy": "DSIGLK4EEXN7bu4BW0FutkCWBFw2",
                    "description": "",
                    "image": "https://ik.imagekit.io/ideasyogi/assets/novelty/brands/FORTUNE.jpg",
                    "imageuploaded": true,
                    "title": "FORTUNE",
                    "uploaded": false
                },
                "-M7xKOkrgu7FcQYtirCR": {
                    "active": true,
                    "createdBy": "DSIGLK4EEXN7bu4BW0FutkCWBFw2",
                    "description": "",
                    "image": "https://ik.imagekit.io/ideasyogi/assets/novelty/brands/GARNIER.jpg",
                    "imageuploaded": true,
                    "title": "GARNIER",
                    "uploaded": false
                },
                "-M7xKOkubAQYO1BwdTqR": {
                    "active": true,
                    "createdBy": "DSIGLK4EEXN7bu4BW0FutkCWBFw2",
                    "description": "",
                    "image": "https://ik.imagekit.io/ideasyogi/assets/novelty/brands/GOLDEE.jpg",
                    "imageuploaded": true,
                    "title": "GOLDEE",
                    "uploaded": false
                },
                "-M7xKOky6OFjm-Gl7nnF": {
                    "active": true,
                    "createdBy": "DSIGLK4EEXN7bu4BW0FutkCWBFw2",
                    "description": "",
                    "image": "https://ik.imagekit.io/ideasyogi/assets/novelty/brands/HIMALAYA.jpg",
                    "imageuploaded": true,
                    "title": "HIMALAYA",
                    "uploaded": false
                },
                "-M7xKOl17ykr_Yf-N4os": {
                    "active": true,
                    "createdBy": "DSIGLK4EEXN7bu4BW0FutkCWBFw2",
                    "description": "",
                    "image": "https://ik.imagekit.io/ideasyogi/assets/novelty/brands/HINDUSTAN UNILIVER LIMITED.jpg",
                    "imageuploaded": true,
                    "title": "HINDUSTAN UNILIVER LIMITED",
                    "uploaded": false
                },
                "-M7xKOl4UJK9kHGAYwuU": {
                    "active": true,
                    "createdBy": "DSIGLK4EEXN7bu4BW0FutkCWBFw2",
                    "description": "",
                    "image": "https://ik.imagekit.io/ideasyogi/assets/novelty/brands/ITC.jpg",
                    "imageuploaded": true,
                    "title": "ITC",
                    "uploaded": false
                },
                "-M7xKOl8mdEiFnwGNNva": {
                    "active": true,
                    "createdBy": "DSIGLK4EEXN7bu4BW0FutkCWBFw2",
                    "description": "",
                    "image": "https://ik.imagekit.io/ideasyogi/assets/novelty/brands/JOY.jpg",
                    "imageuploaded": true,
                    "title": "JOY",
                    "uploaded": false
                },
                "-M7xKOlEthb8rIXLHbK-": {
                    "active": true,
                    "createdBy": "DSIGLK4EEXN7bu4BW0FutkCWBFw2",
                    "description": "",
                    "image": "https://ik.imagekit.io/ideasyogi/assets/novelty/brands/KAMASUTRA.jpg",
                    "imageuploaded": true,
                    "title": "KAMASUTRA",
                    "uploaded": false
                },
                "-M7xKOlK6d3albCfvlb4": {
                    "active": true,
                    "createdBy": "DSIGLK4EEXN7bu4BW0FutkCWBFw2",
                    "description": "",
                    "image": "https://ik.imagekit.io/ideasyogi/assets/novelty/brands/LOREAL.jpg",
                    "imageuploaded": true,
                    "title": "LOREAL",
                    "uploaded": false
                },
                "-M7xKOlP6T5gxFBAX9XA": {
                    "active": true,
                    "createdBy": "DSIGLK4EEXN7bu4BW0FutkCWBFw2",
                    "description": "",
                    "image": "https://ik.imagekit.io/ideasyogi/assets/novelty/brands/LOTUS.jpg",
                    "imageuploaded": true,
                    "title": "LOTUS",
                    "uploaded": false
                },
                "-M7xKOlUeYXKV0PQ4tdd": {
                    "active": true,
                    "createdBy": "DSIGLK4EEXN7bu4BW0FutkCWBFw2",
                    "description": "",
                    "image": "https://ik.imagekit.io/ideasyogi/assets/novelty/brands/MARICO.jpg",
                    "imageuploaded": true,
                    "title": "MARICO",
                    "uploaded": false
                },
                "-M7xKOlb-mrWdOb4xi_g": {
                    "active": true,
                    "createdBy": "DSIGLK4EEXN7bu4BW0FutkCWBFw2",
                    "description": "",
                    "image": "https://ik.imagekit.io/ideasyogi/assets/novelty/brands/MG5.jpg",
                    "imageuploaded": true,
                    "title": "MG5",
                    "uploaded": false
                },
                "-M7xKOljp04JaxnPNLGt": {
                    "active": true,
                    "createdBy": "DSIGLK4EEXN7bu4BW0FutkCWBFw2",
                    "description": "",
                    "image": "https://ik.imagekit.io/ideasyogi/assets/novelty/brands/MILTON.jpg",
                    "imageuploaded": true,
                    "title": "MILTON",
                    "uploaded": false
                },
                "-M7xKOlqQep2wyJXVZUY": {
                    "active": true,
                    "createdBy": "DSIGLK4EEXN7bu4BW0FutkCWBFw2",
                    "description": "",
                    "image": "https://ik.imagekit.io/ideasyogi/assets/novelty/brands/NIRMA.jpg",
                    "imageuploaded": true,
                    "title": "NIRMA",
                    "uploaded": false
                },
                "-M7xKOlvnO4GVR9yJZgL": {
                    "active": true,
                    "createdBy": "DSIGLK4EEXN7bu4BW0FutkCWBFw2",
                    "description": "",
                    "image": "https://ik.imagekit.io/ideasyogi/assets/novelty/brands/NIVEA.jpg",
                    "imageuploaded": true,
                    "title": "NIVIEA",
                    "uploaded": false
                },
                "-M7xKOm0d6cPW3SFMHXl": {
                    "active": true,
                    "createdBy": "DSIGLK4EEXN7bu4BW0FutkCWBFw2",
                    "description": "",
                    "image": "https://ik.imagekit.io/ideasyogi/assets/novelty/brands/P&G.jpg",
                    "imageuploaded": true,
                    "title": "P&G",
                    "uploaded": false
                },
                "-M7xKOm3ufv-Ru-ndOXf": {
                    "active": true,
                    "createdBy": "DSIGLK4EEXN7bu4BW0FutkCWBFw2",
                    "description": "",
                    "image": "https://ik.imagekit.io/ideasyogi/assets/novelty/brands/PARACHUTE.jpg",
                    "imageuploaded": true,
                    "title": "PARACHUTE",
                    "uploaded": false
                },
                "-M7xKOm8IDIaeRPVhNxv": {
                    "active": true,
                    "createdBy": "DSIGLK4EEXN7bu4BW0FutkCWBFw2",
                    "description": "",
                    "image": "https://ik.imagekit.io/ideasyogi/assets/novelty/brands/PATANJALI.jpg",
                    "imageuploaded": true,
                    "title": "PATANJALI",
                    "uploaded": false
                },
                "-M7xKOmCo_6wNvYvEbFK": {
                    "active": true,
                    "createdBy": "DSIGLK4EEXN7bu4BW0FutkCWBFw2",
                    "description": "",
                    "image": "https://ik.imagekit.io/ideasyogi/assets/novelty/brands/VASELINE.jpg",
                    "imageuploaded": true,
                    "title": "VASELINE",
                    "uploaded": false
                },
                "-M7xKOmFZjKPvOt6kPwG": {
                    "active": true,
                    "createdBy": "DSIGLK4EEXN7bu4BW0FutkCWBFw2",
                    "description": "",
                    "image": "https://ik.imagekit.io/ideasyogi/assets/novelty/brands/VINI.jpg",
                    "imageuploaded": true,
                    "title": "VINI",
                    "uploaded": false
                },
                "-M7xKOmMsqtzaNM1xTm2": {
                    "active": true,
                    "createdBy": "DSIGLK4EEXN7bu4BW0FutkCWBFw2",
                    "description": "",
                    "image": "https://ik.imagekit.io/ideasyogi/assets/novelty/brands/WILDSTONE.jpg",
                    "imageuploaded": true,
                    "title": "WILDSTONE",
                    "uploaded": false
                },
                "-M9mPXuFyw3r2e53fjfV": {
                    "active": true,
                    "createdBy": "GvqLv4Kr9zS1scI51MjjMwJgdy63",
                    "description": "",
                    "image": "https://res.cloudinary.com/ideasyogi/image/upload/v1592131202/qgfn2gfhgybbsfk104l4.png",
                    "imageuploaded": true,
                    "title": "CEREAL",
                    "updatedBy": ""
                }
            },
            "categories": {
                "-M7VhbYDqnGfx_NWpgv1": {
                    "active": true,
                    "createdBy": "DSIGLK4EEXN7bu4BW0FutkCWBFw2",
                    "description": "",
                    "image": "https://res.cloudinary.com/ideasyogi/image/upload/v1587487470/pz9cd8gtfohffzt8kbcw.png",
                    "imageuploaded": true,
                    "subcategory": {
                        "-M7Vi7V3D3bwoBp330h9": {
                            "active": true,
                            "createdBy": "DSIGLK4EEXN7bu4BW0FutkCWBFw2",
                            "description": "",
                            "image": "https://res.cloudinary.com/ideasyogi/image/upload/v1589691686/qdtyznpco74rdqeh9j18.jpg",
                            "imageuploaded": true,
                            "title": "FRUITS",
                            "updatedBy": "DSIGLK4EEXN7bu4BW0FutkCWBFw2"
                        },
                        "-M7ViA_K8IaFPNS4jHHS": {
                            "active": true,
                            "createdBy": "DSIGLK4EEXN7bu4BW0FutkCWBFw2",
                            "description": "",
                            "image": "https://res.cloudinary.com/ideasyogi/image/upload/v1589691735/vfchz2k52w63tzlsxiqz.jpg",
                            "imageuploaded": true,
                            "title": "VEGETABLES",
                            "updatedBy": "DSIGLK4EEXN7bu4BW0FutkCWBFw2"
                        }
                    },
                    "title": "FRUITS & VEGETABLES",
                    "updatedBy": "DSIGLK4EEXN7bu4BW0FutkCWBFw2"
                },
                "-M7ViI4jX_neDxO6f4kp": {
                    "active": true,
                    "createdBy": "DSIGLK4EEXN7bu4BW0FutkCWBFw2",
                    "description": "",
                    "image": "https://res.cloudinary.com/ideasyogi/image/upload/v1554035710/yashica_tzklwz.png",
                    "imageuploaded": false,
                    "subcategory": {
                        "-M7ViMLq_NwmoCZ142Ri": {
                            "active": true,
                            "createdBy": "DSIGLK4EEXN7bu4BW0FutkCWBFw2",
                            "description": "",
                            "image": "https://res.cloudinary.com/ideasyogi/image/upload/v1554035710/yashica_tzklwz.png",
                            "imageuploaded": false,
                            "title": "DRY FRUITS",
                            "updatedBy": ""
                        },
                        "-M7ViR3Du1AX_Vx97cKQ": {
                            "active": true,
                            "createdBy": "DSIGLK4EEXN7bu4BW0FutkCWBFw2",
                            "description": "",
                            "image": "https://res.cloudinary.com/ideasyogi/image/upload/v1554035710/yashica_tzklwz.png",
                            "imageuploaded": false,
                            "title": "EDIBLE OILS & GHEE",
                            "updatedBy": ""
                        },
                        "-M7ViUKfjD7nRs3kdXbA": {
                            "active": true,
                            "createdBy": "DSIGLK4EEXN7bu4BW0FutkCWBFw2",
                            "description": "",
                            "image": "https://res.cloudinary.com/ideasyogi/image/upload/v1554035710/yashica_tzklwz.png",
                            "imageuploaded": false,
                            "title": "FLOURS",
                            "updatedBy": ""
                        },
                        "-M7ViXLzAZLVkQI7v2OS": {
                            "active": true,
                            "createdBy": "DSIGLK4EEXN7bu4BW0FutkCWBFw2",
                            "description": "",
                            "image": "https://res.cloudinary.com/ideasyogi/image/upload/v1554035710/yashica_tzklwz.png",
                            "imageuploaded": false,
                            "title": "PULSES",
                            "updatedBy": ""
                        },
                        "-M7ViabH0sOwkWWUMy0L": {
                            "active": true,
                            "createdBy": "DSIGLK4EEXN7bu4BW0FutkCWBFw2",
                            "description": "",
                            "image": "https://res.cloudinary.com/ideasyogi/image/upload/v1554035710/yashica_tzklwz.png",
                            "imageuploaded": false,
                            "title": "RICE VARIANTS",
                            "updatedBy": ""
                        },
                        "-M7VidCS2uvpnEfp5AUu": {
                            "active": true,
                            "createdBy": "DSIGLK4EEXN7bu4BW0FutkCWBFw2",
                            "description": "",
                            "image": "https://res.cloudinary.com/ideasyogi/image/upload/v1554035710/yashica_tzklwz.png",
                            "imageuploaded": false,
                            "title": "SALT & SUGAR",
                            "updatedBy": ""
                        },
                        "-M7Vifz2uwSiddxNGmZW": {
                            "active": true,
                            "createdBy": "DSIGLK4EEXN7bu4BW0FutkCWBFw2",
                            "description": "",
                            "image": "https://res.cloudinary.com/ideasyogi/image/upload/v1554035710/yashica_tzklwz.png",
                            "imageuploaded": false,
                            "title": "SPICES",
                            "updatedBy": ""
                        }
                    },
                    "title": "GROCERY & STAPLES",
                    "updatedBy": ""
                },
                "-M7Vik_nB77LovnXMMYy": {
                    "active": true,
                    "createdBy": "DSIGLK4EEXN7bu4BW0FutkCWBFw2",
                    "description": "",
                    "image": "https://res.cloudinary.com/ideasyogi/image/upload/v1589693059/uu17lgsahf3bkawjl55q.jpg",
                    "imageuploaded": true,
                    "subcategory": {
                        "-M7VinImu322FlhFwIfh": {
                            "active": true,
                            "createdBy": "DSIGLK4EEXN7bu4BW0FutkCWBFw2",
                            "description": "",
                            "image": "https://res.cloudinary.com/ideasyogi/image/upload/v1589693102/n7zfaphg5slstwll1p9c.jpg",
                            "imageuploaded": true,
                            "title": "AIR FRESHNERS",
                            "updatedBy": "DSIGLK4EEXN7bu4BW0FutkCWBFw2"
                        },
                        "-M7VisF2roloRx7_QfH4": {
                            "active": true,
                            "createdBy": "DSIGLK4EEXN7bu4BW0FutkCWBFw2",
                            "description": "",
                            "image": "https://res.cloudinary.com/ideasyogi/image/upload/v1589693148/hgrfbeqg4ah30kezmt9e.jpg",
                            "imageuploaded": true,
                            "title": "CLEANING ACCESSORIES",
                            "updatedBy": "DSIGLK4EEXN7bu4BW0FutkCWBFw2"
                        },
                        "-M7ViwA1I0fPBSWUei6q": {
                            "active": true,
                            "createdBy": "DSIGLK4EEXN7bu4BW0FutkCWBFw2",
                            "description": "",
                            "image": "https://res.cloudinary.com/ideasyogi/image/upload/v1589693203/ycbmd66v5cuc7o0l03di.jpg",
                            "imageuploaded": true,
                            "title": "DETERGENT AND BARS",
                            "updatedBy": "DSIGLK4EEXN7bu4BW0FutkCWBFw2"
                        },
                        "-M7Vj19T94SpceCowQ5q": {
                            "active": true,
                            "createdBy": "DSIGLK4EEXN7bu4BW0FutkCWBFw2",
                            "description": "",
                            "image": "https://res.cloudinary.com/ideasyogi/image/upload/v1554035710/yashica_tzklwz.png",
                            "imageuploaded": false,
                            "title": "DISH WASHING ",
                            "updatedBy": ""
                        },
                        "-M7Vj6Ao9RD3KorOyHyq": {
                            "active": true,
                            "createdBy": "DSIGLK4EEXN7bu4BW0FutkCWBFw2",
                            "description": "",
                            "image": "https://res.cloudinary.com/ideasyogi/image/upload/v1554035710/yashica_tzklwz.png",
                            "imageuploaded": false,
                            "title": "ELECTRICAL FITTING AND ACCESSORIES",
                            "updatedBy": ""
                        },
                        "-M7VjBfW_1fomNUKka2N": {
                            "active": true,
                            "createdBy": "DSIGLK4EEXN7bu4BW0FutkCWBFw2",
                            "description": "",
                            "image": "https://res.cloudinary.com/ideasyogi/image/upload/v1554035710/yashica_tzklwz.png",
                            "imageuploaded": false,
                            "title": "PACKAGING AND FOILS",
                            "updatedBy": ""
                        },
                        "-M7VjDlmTI0nIHza8lVU": {
                            "active": true,
                            "createdBy": "DSIGLK4EEXN7bu4BW0FutkCWBFw2",
                            "description": "",
                            "image": "https://res.cloudinary.com/ideasyogi/image/upload/v1554035710/yashica_tzklwz.png",
                            "imageuploaded": false,
                            "title": "PLASTIC ITEMS",
                            "updatedBy": ""
                        },
                        "-M7VjGhHHhOroN1GZCOo": {
                            "active": true,
                            "createdBy": "DSIGLK4EEXN7bu4BW0FutkCWBFw2",
                            "description": "",
                            "image": "https://res.cloudinary.com/ideasyogi/image/upload/v1554035710/yashica_tzklwz.png",
                            "imageuploaded": false,
                            "title": "PUJA ITEMS",
                            "updatedBy": ""
                        },
                        "-M7VjJkPJbn5fL8guGrd": {
                            "active": true,
                            "createdBy": "DSIGLK4EEXN7bu4BW0FutkCWBFw2",
                            "description": "",
                            "image": "https://res.cloudinary.com/ideasyogi/image/upload/v1554035710/yashica_tzklwz.png",
                            "imageuploaded": false,
                            "title": "SHOE CARE",
                            "updatedBy": ""
                        },
                        "-M7VjNJ08fdQxyciCOtN": {
                            "active": true,
                            "createdBy": "DSIGLK4EEXN7bu4BW0FutkCWBFw2",
                            "description": "",
                            "image": "https://res.cloudinary.com/ideasyogi/image/upload/v1554035710/yashica_tzklwz.png",
                            "imageuploaded": false,
                            "title": "STATIONARY ITEMS",
                            "updatedBy": ""
                        },
                        "-M7VjTDg_Pdngtj_kphL": {
                            "active": true,
                            "createdBy": "DSIGLK4EEXN7bu4BW0FutkCWBFw2",
                            "description": "",
                            "image": "https://res.cloudinary.com/ideasyogi/image/upload/v1554035710/yashica_tzklwz.png",
                            "imageuploaded": false,
                            "title": "TOILET FLOOR & OTHER CLEANERS",
                            "updatedBy": ""
                        },
                        "-M7VjVJ_bPtbG-YtPb-w": {
                            "active": true,
                            "createdBy": "DSIGLK4EEXN7bu4BW0FutkCWBFw2",
                            "description": "",
                            "image": "https://res.cloudinary.com/ideasyogi/image/upload/v1554035710/yashica_tzklwz.png",
                            "imageuploaded": false,
                            "title": "REPELLENTS",
                            "updatedBy": ""
                        }
                    },
                    "title": "HOUSEHOLD",
                    "updatedBy": "DSIGLK4EEXN7bu4BW0FutkCWBFw2"
                },
                "-M7VjeLTaxjDGFwA3WEU": {
                    "active": true,
                    "createdBy": "DSIGLK4EEXN7bu4BW0FutkCWBFw2",
                    "description": "",
                    "image": "https://res.cloudinary.com/ideasyogi/image/upload/v1589692606/e5fsys1yi9lm5v9fd1kz.jpg",
                    "imageuploaded": true,
                    "subcategory": {
                        "-M7VjirqyD6px0IdxL6H": {
                            "active": true,
                            "createdBy": "DSIGLK4EEXN7bu4BW0FutkCWBFw2",
                            "description": "",
                            "image": "https://res.cloudinary.com/ideasyogi/image/upload/v1589692639/mtdymbumibc3ije9e6h1.jpg",
                            "imageuploaded": true,
                            "title": "ENERGY AND HEALTH DRINKS",
                            "updatedBy": "DSIGLK4EEXN7bu4BW0FutkCWBFw2"
                        },
                        "-M7VjoDW1bvCBX3C2mf_": {
                            "active": true,
                            "createdBy": "DSIGLK4EEXN7bu4BW0FutkCWBFw2",
                            "description": "",
                            "image": "https://res.cloudinary.com/ideasyogi/image/upload/v1589692749/brggtw2fbjeufkaixgob.jpg",
                            "imageuploaded": true,
                            "title": "FRUIT DRINKS AND JUICES",
                            "updatedBy": "DSIGLK4EEXN7bu4BW0FutkCWBFw2"
                        },
                        "-M7Vjt2V8hTPe7JuD9bh": {
                            "active": true,
                            "createdBy": "DSIGLK4EEXN7bu4BW0FutkCWBFw2",
                            "description": "",
                            "image": "https://res.cloudinary.com/ideasyogi/image/upload/v1589692791/yje3zyaq4muctxlrnfqv.jpg",
                            "imageuploaded": true,
                            "title": "PACKAGED DRINKING WATER",
                            "updatedBy": "DSIGLK4EEXN7bu4BW0FutkCWBFw2"
                        },
                        "-M7VjvJ6r-NIELU0Mbhh": {
                            "active": true,
                            "createdBy": "DSIGLK4EEXN7bu4BW0FutkCWBFw2",
                            "description": "",
                            "image": "https://res.cloudinary.com/ideasyogi/image/upload/v1589692831/zmtybyzyhovoozecg4l5.jpg",
                            "imageuploaded": true,
                            "title": "SOFT DRINKS",
                            "updatedBy": "DSIGLK4EEXN7bu4BW0FutkCWBFw2"
                        },
                        "-M7Vk1Vq3XdY7lA9AuJx": {
                            "active": true,
                            "createdBy": "DSIGLK4EEXN7bu4BW0FutkCWBFw2",
                            "description": "",
                            "image": "https://res.cloudinary.com/ideasyogi/image/upload/v1589692947/kjyimmprabykdcjxknyq.jpg",
                            "imageuploaded": true,
                            "title": "TEA AND COFFEE",
                            "updatedBy": "DSIGLK4EEXN7bu4BW0FutkCWBFw2"
                        }
                    },
                    "title": "BEVERAGES",
                    "updatedBy": "DSIGLK4EEXN7bu4BW0FutkCWBFw2"
                },
                "-M7Vk5vyBd4DmXoiguYr": {
                    "active": true,
                    "createdBy": "DSIGLK4EEXN7bu4BW0FutkCWBFw2",
                    "description": "",
                    "image": "https://res.cloudinary.com/ideasyogi/image/upload/v1589691873/aoykerkk6sok0gohyn5g.jpg",
                    "imageuploaded": true,
                    "subcategory": {
                        "-M7Vk8KsQqdGfHmoQyGu": {
                            "active": true,
                            "createdBy": "DSIGLK4EEXN7bu4BW0FutkCWBFw2",
                            "description": "",
                            "image": "https://res.cloudinary.com/ideasyogi/image/upload/v1589691913/pv3sflrpbpl7afd5uzcy.jpg",
                            "imageuploaded": true,
                            "title": "BABY CARE",
                            "updatedBy": "DSIGLK4EEXN7bu4BW0FutkCWBFw2"
                        },
                        "-M7VkBN5-50Fp9DmXl3t": {
                            "active": true,
                            "createdBy": "DSIGLK4EEXN7bu4BW0FutkCWBFw2",
                            "description": "",
                            "image": "https://res.cloudinary.com/ideasyogi/image/upload/v1589692032/i0uuuhtvxy6d2ojzd9c0.jpg",
                            "imageuploaded": true,
                            "title": "COSMETICS",
                            "updatedBy": "DSIGLK4EEXN7bu4BW0FutkCWBFw2"
                        },
                        "-M7VkFnzfU4klMTxtxBa": {
                            "active": true,
                            "createdBy": "DSIGLK4EEXN7bu4BW0FutkCWBFw2",
                            "description": "",
                            "image": "https://res.cloudinary.com/ideasyogi/image/upload/v1589692089/w0qgiajbdn1aaoddmnqc.jpg",
                            "imageuploaded": true,
                            "title": "DEOS AND PERFUMES",
                            "updatedBy": "DSIGLK4EEXN7bu4BW0FutkCWBFw2"
                        },
                        "-M7VkIADFWnaXxIizOfl": {
                            "active": true,
                            "createdBy": "DSIGLK4EEXN7bu4BW0FutkCWBFw2",
                            "description": "",
                            "image": "https://res.cloudinary.com/ideasyogi/image/upload/v1589692147/c2byfqz54datijiobng0.jpg",
                            "imageuploaded": true,
                            "title": "HAIR CARE",
                            "updatedBy": "DSIGLK4EEXN7bu4BW0FutkCWBFw2"
                        },
                        "-M7VkZaULl51FYDjMiEq": {
                            "active": true,
                            "createdBy": "DSIGLK4EEXN7bu4BW0FutkCWBFw2",
                            "description": "",
                            "image": "https://res.cloudinary.com/ideasyogi/image/upload/v1589692231/f3eohmhatgw6asopdz5j.jpg",
                            "imageuploaded": true,
                            "title": "HEALTH CARE",
                            "updatedBy": "DSIGLK4EEXN7bu4BW0FutkCWBFw2"
                        },
                        "-M7VkaXLIWm2Z1x9w7bM": {
                            "active": true,
                            "createdBy": "DSIGLK4EEXN7bu4BW0FutkCWBFw2",
                            "description": "",
                            "image": "https://res.cloudinary.com/ideasyogi/image/upload/v1589692271/rkc1uuhrlm70yvcmbxbw.jpg",
                            "imageuploaded": true,
                            "title": "ORAL CARE",
                            "updatedBy": "DSIGLK4EEXN7bu4BW0FutkCWBFw2"
                        },
                        "-M7Vkf5bNofkLH61CFsg": {
                            "active": true,
                            "createdBy": "DSIGLK4EEXN7bu4BW0FutkCWBFw2",
                            "description": "",
                            "image": "https://res.cloudinary.com/ideasyogi/image/upload/v1589692316/pvylwlfk1jewl7vnjut8.jpg",
                            "imageuploaded": true,
                            "title": "PERSONAL HYGIENE",
                            "updatedBy": "DSIGLK4EEXN7bu4BW0FutkCWBFw2"
                        },
                        "-M7VkhFLrTzN73qQolgR": {
                            "active": true,
                            "createdBy": "DSIGLK4EEXN7bu4BW0FutkCWBFw2",
                            "description": "",
                            "image": "https://res.cloudinary.com/ideasyogi/image/upload/v1589692384/qnbj8zbu0d4ys8dx5fgg.jpg",
                            "imageuploaded": true,
                            "title": "SANITARY NEEDS",
                            "updatedBy": "DSIGLK4EEXN7bu4BW0FutkCWBFw2"
                        },
                        "-M7VkkVnG915LmLDs9Ww": {
                            "active": true,
                            "createdBy": "DSIGLK4EEXN7bu4BW0FutkCWBFw2",
                            "description": "",
                            "image": "https://res.cloudinary.com/ideasyogi/image/upload/v1589692430/kroo0mslak01vb9mv5pq.jpg",
                            "imageuploaded": true,
                            "title": "SHAVING NEEDS",
                            "updatedBy": "DSIGLK4EEXN7bu4BW0FutkCWBFw2"
                        },
                        "-M7VkmUosp2O-5rsia9U": {
                            "active": true,
                            "createdBy": "DSIGLK4EEXN7bu4BW0FutkCWBFw2",
                            "description": "",
                            "image": "https://res.cloudinary.com/ideasyogi/image/upload/v1589692507/viflst9vmriafzw6t1qo.jpg",
                            "imageuploaded": true,
                            "title": "SKIN CARE",
                            "updatedBy": "DSIGLK4EEXN7bu4BW0FutkCWBFw2"
                        }
                    },
                    "title": "PERSONAL CARE",
                    "updatedBy": "DSIGLK4EEXN7bu4BW0FutkCWBFw2"
                },
                "-M7VksI7WcI0k_NgWLMW": {
                    "active": true,
                    "createdBy": "DSIGLK4EEXN7bu4BW0FutkCWBFw2",
                    "description": "",
                    "image": "https://res.cloudinary.com/ideasyogi/image/upload/v1589691574/fsid3am7s68mgku3uchu.jpg",
                    "imageuploaded": true,
                    "subcategory": {
                        "-M7VkvRcGmmnBMgSvnOa": {
                            "active": true,
                            "createdBy": "DSIGLK4EEXN7bu4BW0FutkCWBFw2",
                            "description": "",
                            "image": "https://res.cloudinary.com/ideasyogi/image/upload/v1589691588/bgq5wxbnbhc69gkub2v2.jpg",
                            "imageuploaded": true,
                            "title": "BREAD AND BAKERY",
                            "updatedBy": "DSIGLK4EEXN7bu4BW0FutkCWBFw2"
                        },
                        "-M7Vkxpl158X54qwb3pk": {
                            "active": true,
                            "createdBy": "DSIGLK4EEXN7bu4BW0FutkCWBFw2",
                            "description": "",
                            "image": "https://res.cloudinary.com/ideasyogi/image/upload/v1589691641/lt18lienxxohcveyazxu.jpg",
                            "imageuploaded": true,
                            "title": "DAIRY PRODUCTS",
                            "updatedBy": "DSIGLK4EEXN7bu4BW0FutkCWBFw2"
                        }
                    },
                    "title": "DAIRY AND BREAD",
                    "updatedBy": "DSIGLK4EEXN7bu4BW0FutkCWBFw2"
                },
                "-M7VlCt9h3IJ0ztNf9TH": {
                    "active": true,
                    "createdBy": "DSIGLK4EEXN7bu4BW0FutkCWBFw2",
                    "description": "",
                    "image": "https://res.cloudinary.com/ideasyogi/image/upload/v1589689534/ciedsxv1xv2krjrmyohm.png",
                    "imageuploaded": true,
                    "subcategory": {
                        "-M7VlFhBrUMIiX_elI1f": {
                            "active": true,
                            "createdBy": "DSIGLK4EEXN7bu4BW0FutkCWBFw2",
                            "description": "",
                            "image": "https://res.cloudinary.com/ideasyogi/image/upload/v1589689752/ekff7oxemb1gj1nlwpnv.jpg",
                            "imageuploaded": true,
                            "title": "BABY FOOD",
                            "updatedBy": "DSIGLK4EEXN7bu4BW0FutkCWBFw2"
                        },
                        "-M7VlKFgmCDJY71WTpQQ": {
                            "active": true,
                            "createdBy": "DSIGLK4EEXN7bu4BW0FutkCWBFw2",
                            "description": "",
                            "image": "https://res.cloudinary.com/ideasyogi/image/upload/v1589689831/entphjxh4xoiktfabzts.jpg",
                            "imageuploaded": true,
                            "title": "BAKING AND DESSERT ITEMS",
                            "updatedBy": "DSIGLK4EEXN7bu4BW0FutkCWBFw2"
                        },
                        "-M7VlNPg340DJgqy56jU": {
                            "active": true,
                            "createdBy": "DSIGLK4EEXN7bu4BW0FutkCWBFw2",
                            "description": "",
                            "image": "https://res.cloudinary.com/ideasyogi/image/upload/v1589689875/rbbhh5tf7akvlqtstari.jpg",
                            "imageuploaded": true,
                            "title": "BISCUITS AND COOKIES",
                            "updatedBy": "DSIGLK4EEXN7bu4BW0FutkCWBFw2"
                        },
                        "-M7VlQqZ6sehSHDPA_sw": {
                            "active": true,
                            "createdBy": "DSIGLK4EEXN7bu4BW0FutkCWBFw2",
                            "description": "",
                            "image": "https://res.cloudinary.com/ideasyogi/image/upload/v1589690151/htmvcx3wyudkap2plhlq.jpg",
                            "imageuploaded": true,
                            "title": "BREAKFAST AND CEREALS",
                            "updatedBy": "DSIGLK4EEXN7bu4BW0FutkCWBFw2"
                        },
                        "-M7VlWwJWrONyQIxmHL3": {
                            "active": true,
                            "createdBy": "DSIGLK4EEXN7bu4BW0FutkCWBFw2",
                            "description": "",
                            "image": "https://res.cloudinary.com/ideasyogi/image/upload/v1589690225/gcs162ykd7etfkv4dcvk.jpg",
                            "imageuploaded": true,
                            "title": "CHOCOLATE CANDIES & SWEET",
                            "updatedBy": "DSIGLK4EEXN7bu4BW0FutkCWBFw2"
                        },
                        "-M7VlaTBq-ikDEtW1EcV": {
                            "active": true,
                            "createdBy": "DSIGLK4EEXN7bu4BW0FutkCWBFw2",
                            "description": "",
                            "image": "https://res.cloudinary.com/ideasyogi/image/upload/v1589690366/ywrcvoiun05cnwl1cgc1.jpg",
                            "imageuploaded": true,
                            "title": "GIFTS AND SWEETS",
                            "updatedBy": "DSIGLK4EEXN7bu4BW0FutkCWBFw2"
                        },
                        "-M7VlcoClt7brehVeC8c": {
                            "active": true,
                            "createdBy": "DSIGLK4EEXN7bu4BW0FutkCWBFw2",
                            "description": "",
                            "image": "https://res.cloudinary.com/ideasyogi/image/upload/v1589690253/lfyrumlqwcstirtdhpcv.jpg",
                            "imageuploaded": true,
                            "title": "INDIAN SWEETS",
                            "updatedBy": "DSIGLK4EEXN7bu4BW0FutkCWBFw2"
                        },
                        "-M7VleNRycKiB2zT7xx2": {
                            "active": true,
                            "createdBy": "DSIGLK4EEXN7bu4BW0FutkCWBFw2",
                            "description": "",
                            "image": "https://res.cloudinary.com/ideasyogi/image/upload/v1589691118/cnfqycnuqwinqlhgq1hj.jpg",
                            "imageuploaded": true,
                            "title": "JAM AND SPREADS",
                            "updatedBy": "DSIGLK4EEXN7bu4BW0FutkCWBFw2"
                        },
                        "-M7Vli4tYej_rYLJRkBi": {
                            "active": true,
                            "createdBy": "DSIGLK4EEXN7bu4BW0FutkCWBFw2",
                            "description": "",
                            "image": "https://res.cloudinary.com/ideasyogi/image/upload/v1589691178/dna5weoaszqjweauvxjg.jpg",
                            "imageuploaded": true,
                            "title": "NAMKEEN",
                            "updatedBy": "DSIGLK4EEXN7bu4BW0FutkCWBFw2"
                        },
                        "-M7VlnA9Nz2npAE7mK4w": {
                            "active": true,
                            "createdBy": "DSIGLK4EEXN7bu4BW0FutkCWBFw2",
                            "description": "",
                            "image": "https://res.cloudinary.com/ideasyogi/image/upload/v1589691229/gvfh3xeguww20bx6zrrh.jpg",
                            "imageuploaded": true,
                            "title": "NOODLES MACRONI & PASTA",
                            "updatedBy": "DSIGLK4EEXN7bu4BW0FutkCWBFw2"
                        },
                        "-M7VlqGPM46qtHUzqul6": {
                            "active": true,
                            "createdBy": "DSIGLK4EEXN7bu4BW0FutkCWBFw2",
                            "description": "",
                            "image": "https://res.cloudinary.com/ideasyogi/image/upload/v1589691330/wzapmgls5xizjoyrnlyo.jpg",
                            "imageuploaded": true,
                            "title": "PICKLES",
                            "updatedBy": "DSIGLK4EEXN7bu4BW0FutkCWBFw2"
                        },
                        "-M7Vlt40S0lCOLlDb_-d": {
                            "active": true,
                            "createdBy": "DSIGLK4EEXN7bu4BW0FutkCWBFw2",
                            "description": "",
                            "image": "https://res.cloudinary.com/ideasyogi/image/upload/v1589691384/y3psnxhheo1irxs50cid.jpg",
                            "imageuploaded": true,
                            "title": "READY TO EAT AND COOK",
                            "updatedBy": "DSIGLK4EEXN7bu4BW0FutkCWBFw2"
                        },
                        "-M7VlwvG5tkYd4OHWZng": {
                            "active": true,
                            "createdBy": "DSIGLK4EEXN7bu4BW0FutkCWBFw2",
                            "description": "",
                            "image": "https://res.cloudinary.com/ideasyogi/image/upload/v1589691432/aoncds3m4ylxuchthaz2.jpg",
                            "imageuploaded": true,
                            "title": "SAUCES AND KETCHUP",
                            "updatedBy": "DSIGLK4EEXN7bu4BW0FutkCWBFw2"
                        },
                        "-M7VlzFb94o1liYy_bbs": {
                            "active": true,
                            "createdBy": "DSIGLK4EEXN7bu4BW0FutkCWBFw2",
                            "description": "",
                            "image": "https://res.cloudinary.com/ideasyogi/image/upload/v1589691551/i51fr0bgw4zggmxonqhb.jpg",
                            "imageuploaded": true,
                            "title": "VEG SNACKS",
                            "updatedBy": "DSIGLK4EEXN7bu4BW0FutkCWBFw2"
                        }
                    },
                    "title": "BRANDED FOODS",
                    "updatedBy": "DSIGLK4EEXN7bu4BW0FutkCWBFw2"
                }
            },
            "products": {
                "-M7kICzyItyTPE4dacLB": {
                    "brand": "",
                    "category": "FRUITS & VEGETABLES",
                    "createdBy": "DSIGLK4EEXN7bu4BW0FutkCWBFw2",
                    "description": "Out of form",
                    "discount": "0",
                    "heavydiscount": false,
                    "image": "https://res.cloudinary.com/ideasyogi/image/upload/v1587481761/uw21hh4eeyhpuudogkxf.jpg",
                    "imageuploaded": "TRUE",
                    "isorganic": true,
                    "istopsaver": true,
                    "isveg": true,
                    "maxqty": "9",
                    "mrp": "700",
                    "newarrival": false,
                    "outofstock": false,
                    "price": "700",
                    "soldout": false,
                    "subcategory": "FRESH VEGETABLES",
                    "title": "BUSH BEANS",
                    "uploaded": false,
                    "variations": ""
                },
                "-M7kID-14_qH1RCu6_zE": {
                    "brand": "",
                    "category": "FRUITS & VEGETABLES",
                    "createdBy": "DSIGLK4EEXN7bu4BW0FutkCWBFw2",
                    "description": "Fresh onions 1kg",
                    "discount": "0",
                    "heavydiscount": false,
                    "image": "https://res.cloudinary.com/ideasyogi/image/upload/v1588424056/yqinw63oycodnfpdgf8g.jpg",
                    "imageuploaded": "FRUITS & VEGETABLES",
                    "isorganic": true,
                    "istopsaver": true,
                    "isveg": true,
                    "maxqty": 59,
                    "mrp": "30",
                    "newarrival": false,
                    "outofstock": false,
                    "price": "30",
                    "soldout": false,
                    "subcategory": "FRESH VEGETABLES",
                    "title": "ONIONS",
                    "uploaded": false,
                    "variations": ""
                },
                "-M7kID-6UxDoHC_-RDli": {
                    "brand": "",
                    "category": "FRUITS & VEGETABLES",
                    "createdBy": "DSIGLK4EEXN7bu4BW0FutkCWBFw2",
                    "description": "Fresh alu potato 1kg",
                    "discount": "0",
                    "heavydiscount": true,
                    "image": "https://res.cloudinary.com/ideasyogi/image/upload/v1588424163/t36orn5hm9pktjkputov.jpg",
                    "imageuploaded": "FRUITS & VEGETABLES",
                    "isorganic": true,
                    "istopsaver": true,
                    "isveg": true,
                    "maxqty": "60",
                    "mrp": "30",
                    "newarrival": true,
                    "outofstock": false,
                    "price": "30",
                    "soldout": false,
                    "subcategory": "FRESH VEGETABLES",
                    "title": "POTATO ALU",
                    "uploaded": false,
                    "variations": ""
                },
                "-M7kID-C-2_enAuXZ19D": {
                    "brand": "",
                    "category": "FRUITS & VEGETABLES",
                    "createdBy": "DSIGLK4EEXN7bu4BW0FutkCWBFw2",
                    "description": "Fresh ginger 250 gm",
                    "discount": "0",
                    "heavydiscount": false,
                    "image": "https://res.cloudinary.com/ideasyogi/image/upload/v1588424254/ulxnc6yidxbmmueyf0mq.jpg",
                    "imageuploaded": "FRUITS & VEGETABLES",
                    "isorganic": true,
                    "istopsaver": true,
                    "isveg": true,
                    "maxqty": "60",
                    "mrp": "30",
                    "newarrival": false,
                    "outofstock": false,
                    "price": "30",
                    "soldout": false,
                    "subcategory": "FRESH VEGETABLES",
                    "title": "GINGER ADRAK",
                    "uploaded": false,
                    "variations": ""
                },
                "-M7kID-FlmoR6Fw6L51b": {
                    "brand": "",
                    "category": "FRUITS & VEGETABLES",
                    "createdBy": "DSIGLK4EEXN7bu4BW0FutkCWBFw2",
                    "description": "Fresh garlic 250 gm",
                    "discount": "0",
                    "heavydiscount": false,
                    "image": "https://res.cloudinary.com/ideasyogi/image/upload/v1588424318/jl2f1ltlmcd0kmnum2ah.jpg",
                    "imageuploaded": "FRUITS & VEGETABLES",
                    "isorganic": true,
                    "istopsaver": true,
                    "isveg": true,
                    "maxqty": "60",
                    "mrp": "30",
                    "newarrival": false,
                    "outofstock": false,
                    "price": "30",
                    "soldout": false,
                    "subcategory": "FRESH VEGETABLES",
                    "title": "LAHSUN GARLIC",
                    "uploaded": false,
                    "variations": ""
                },
                "-M7kID-L0yCxmPaEgBLA": {
                    "brand": "",
                    "category": "FRUITS & VEGETABLES",
                    "createdBy": "DSIGLK4EEXN7bu4BW0FutkCWBFw2",
                    "description": "Fresh coriender 250 gm",
                    "discount": "0",
                    "heavydiscount": false,
                    "image": "https://res.cloudinary.com/ideasyogi/image/upload/v1588424575/b583tn7dagqlevhitl8r.jpg",
                    "imageuploaded": "FRUITS & VEGETABLES",
                    "isorganic": true,
                    "istopsaver": true,
                    "isveg": true,
                    "maxqty": "57",
                    "mrp": "30",
                    "newarrival": false,
                    "outofstock": false,
                    "price": "30",
                    "soldout": false,
                    "subcategory": "FRESH VEGETABLES",
                    "title": "KOTHIMBIR CORIENDER",
                    "uploaded": false,
                    "variations": ""
                },
                "-M7kID-SnYgG097oD2Uf": {
                    "brand": "",
                    "category": "FRUITS & VEGETABLES",
                    "createdBy": "",
                    "description": "Fresh kobi",
                    "discount": "50",
                    "discounttext": "",
                    "heavydiscount": true,
                    "image": "https://res.cloudinary.com/ideasyogi/image/upload/v1588424799/vdriikinr1uwaj3adhpf.jpg",
                    "imageuploaded": "FRUITS & VEGETABLES",
                    "isorganic": true,
                    "istopsaver": true,
                    "isveg": true,
                    "maxqty": 42,
                    "mrp": "60",
                    "newarrival": false,
                    "outofstock": false,
                    "price": "30",
                    "soldout": false,
                    "subcategory": "FRESH VEGETABLES",
                    "title": "CALIFLOWER FULL KOBI",
                    "updatedBy": "DSIGLK4EEXN7bu4BW0FutkCWBFw2",
                    "uploaded": false,
                    "variations": {
                        "-M7kID-WR3p1TQ3_Pk2_": {
                            "description": "KOBi 1 kg",
                            "maxqty": 9,
                            "mrp": 50,
                            "price": 40
                        },
                        "-M7kID-Z8Bo9ncr86TqH": {
                            "description": "KOBi 1 kg",
                            "maxqty": 9,
                            "mrp": 50,
                            "price": 40
                        }
                    }
                },
                "-M851XoDtQISsjXPCaeJ": {
                    "brand": "",
                    "category": "FRUITS & VEGETABLES",
                    "createdBy": "",
                    "description": "Fresh kobi",
                    "discount": "50",
                    "discounttext": "",
                    "heavydiscount": true,
                    "image": "https://res.cloudinary.com/ideasyogi/image/upload/v1590314281/gomu60gkitcoy2lajnqb.jpg",
                    "imageuploaded": true,
                    "isorganic": true,
                    "istopsaver": true,
                    "isveg": true,
                    "maxqty": "42",
                    "mrp": "60",
                    "newarrival": true,
                    "outofstock": false,
                    "price": "30",
                    "soldout": false,
                    "subcategory": "FRESH VEGETABLES",
                    "title": "CAULI FLOWER",
                    "updatedBy": "DSIGLK4EEXN7bu4BW0FutkCWBFw2",
                    "uploaded": false,
                    "variations": {
                        "-M851XoLpqiDTTZjXDTT": {
                            "description": "KOBi 1 kg",
                            "maxqty": 9,
                            "mrp": 50,
                            "price": 40
                        },
                        "-M851XoQlKRJZDVhqJnQ": {
                            "description": "KOBi 1 kg",
                            "maxqty": 9,
                            "mrp": 50,
                            "price": 40
                        }
                    }
                },
                "-M851XoV59HXkZeVn3Ch": {
                    "brand": "",
                    "category": "FRUITS & VEGETABLES",
                    "createdBy": "DSIGLK4EEXN7bu4BW0FutkCWBFw2",
                    "description": "",
                    "discount": "50",
                    "discounttext": "",
                    "heavydiscount": true,
                    "image": "https://res.cloudinary.com/ideasyogi/image/upload/v1590314246/v7otxirrpfkhjjsrqpev.jpg",
                    "imageuploaded": true,
                    "isorganic": true,
                    "istopsaver": true,
                    "isveg": true,
                    "maxqty": "42",
                    "mrp": "60",
                    "newarrival": true,
                    "outofstock": false,
                    "price": "30",
                    "soldout": false,
                    "subcategory": "FRESH VEGETABLES",
                    "title": "BITTER GUARD",
                    "updatedBy": "DSIGLK4EEXN7bu4BW0FutkCWBFw2",
                    "uploaded": false,
                    "variations": ""
                },
                "-M851Xo_1Lb5lr6wxhz_": {
                    "brand": "",
                    "category": "FRUITS & VEGETABLES",
                    "createdBy": "DSIGLK4EEXN7bu4BW0FutkCWBFw2",
                    "description": "",
                    "discount": "50",
                    "heavydiscount": true,
                    "image": "https://ik.imagekit.io/ideasyogi/assets/fnv/veg/BRINGAL.jpg",
                    "imageuploaded": "FRUITS & VEGETABLES",
                    "isorganic": true,
                    "istopsaver": true,
                    "isveg": true,
                    "maxqty": "42",
                    "mrp": "60",
                    "newarrival": true,
                    "outofstock": false,
                    "price": "30",
                    "soldout": false,
                    "subcategory": "FRESH VEGETABLES",
                    "title": "BRINGAL",
                    "uploaded": false,
                    "variations": ""
                },
                "-M851hwTmfifH3X9r6mH": {
                    "brand": "",
                    "category": "FRUITS & VEGETABLES",
                    "createdBy": "DSIGLK4EEXN7bu4BW0FutkCWBFw2",
                    "description": "",
                    "discount": "50",
                    "heavydiscount": true,
                    "image": "https://ik.imagekit.io/ideasyogi/assets/fnv/veg/CABBAGE.jpg",
                    "imageuploaded": "FRUITS & VEGETABLES",
                    "isorganic": true,
                    "istopsaver": true,
                    "isveg": true,
                    "maxqty": "42",
                    "mrp": "60",
                    "newarrival": true,
                    "outofstock": false,
                    "price": "30",
                    "soldout": false,
                    "subcategory": "FRESH VEGETABLES",
                    "title": "CABBAGE",
                    "uploaded": false,
                    "variations": ""
                },
                "-M851hwZ3tsNFE0Ayk7I": {
                    "brand": "",
                    "category": "FRUITS & VEGETABLES",
                    "createdBy": "DSIGLK4EEXN7bu4BW0FutkCWBFw2",
                    "description": "",
                    "discount": "50",
                    "heavydiscount": true,
                    "image": "https://ik.imagekit.io/ideasyogi/assets/fnv/veg/CARROT.jpg",
                    "imageuploaded": "FRUITS & VEGETABLES",
                    "isorganic": true,
                    "istopsaver": true,
                    "isveg": true,
                    "maxqty": "42",
                    "mrp": "60",
                    "newarrival": true,
                    "outofstock": false,
                    "price": "30",
                    "soldout": false,
                    "subcategory": "FRESH VEGETABLES",
                    "title": "CARROT",
                    "uploaded": false,
                    "variations": ""
                },
                "-M851hwcvuvAuVvcKVZM": {
                    "brand": "",
                    "category": "FRUITS & VEGETABLES",
                    "createdBy": "DSIGLK4EEXN7bu4BW0FutkCWBFw2",
                    "description": "",
                    "discount": "50",
                    "heavydiscount": true,
                    "image": "https://ik.imagekit.io/ideasyogi/assets/fnv/veg/CORIENDER.jpg",
                    "imageuploaded": "FRUITS & VEGETABLES",
                    "isorganic": true,
                    "istopsaver": true,
                    "isveg": true,
                    "maxqty": "42",
                    "mrp": "60",
                    "newarrival": true,
                    "outofstock": false,
                    "price": "30",
                    "soldout": false,
                    "subcategory": "FRESH VEGETABLES",
                    "title": "CORIENDER",
                    "uploaded": false,
                    "variations": ""
                },
                "-M851hwh0BnuOwfSGOct": {
                    "brand": "",
                    "category": "FRUITS & VEGETABLES",
                    "createdBy": "DSIGLK4EEXN7bu4BW0FutkCWBFw2",
                    "description": "",
                    "discount": "50",
                    "heavydiscount": true,
                    "image": "https://ik.imagekit.io/ideasyogi/assets/fnv/veg/GARLIC.jpg",
                    "imageuploaded": "FRUITS & VEGETABLES",
                    "isorganic": true,
                    "istopsaver": true,
                    "isveg": true,
                    "maxqty": "42",
                    "mrp": "60",
                    "newarrival": true,
                    "outofstock": false,
                    "price": "30",
                    "soldout": false,
                    "subcategory": "FRESH VEGETABLES",
                    "title": "GARLIC",
                    "uploaded": false,
                    "variations": ""
                },
                "-M851hwl2oz2X8z5aDoY": {
                    "brand": "",
                    "category": "FRUITS & VEGETABLES",
                    "createdBy": "DSIGLK4EEXN7bu4BW0FutkCWBFw2",
                    "description": "",
                    "discount": "50",
                    "heavydiscount": true,
                    "image": "https://ik.imagekit.io/ideasyogi/assets/fnv/veg/GINGER.jpg",
                    "imageuploaded": "FRUITS & VEGETABLES",
                    "isorganic": true,
                    "istopsaver": true,
                    "isveg": true,
                    "maxqty": "42",
                    "mrp": "60",
                    "newarrival": true,
                    "outofstock": false,
                    "price": "30",
                    "soldout": false,
                    "subcategory": "FRESH VEGETABLES",
                    "title": "GINGER",
                    "uploaded": false,
                    "variations": ""
                },
                "-M851hwpzWqFgJnP_lKt": {
                    "brand": "",
                    "category": "FRUITS & VEGETABLES",
                    "createdBy": "DSIGLK4EEXN7bu4BW0FutkCWBFw2",
                    "description": "",
                    "discount": "50",
                    "discounttext": "",
                    "heavydiscount": true,
                    "image": "https://ik.imagekit.io/ideasyogi/assets/fnv/veg/GREENCHILLI.jpg",
                    "imageuploaded": "FRUITS & VEGETABLES",
                    "isorganic": true,
                    "istopsaver": true,
                    "isveg": true,
                    "maxqty": "42",
                    "mrp": "60",
                    "newarrival": true,
                    "outofstock": false,
                    "price": "30",
                    "soldout": false,
                    "subcategory": "FRESH VEGETABLES",
                    "title": "GREEN CHILLI",
                    "updatedBy": "DSIGLK4EEXN7bu4BW0FutkCWBFw2",
                    "uploaded": false,
                    "variations": ""
                },
                "-M851hwtsfuyyJZu1g2V": {
                    "brand": "",
                    "category": "FRUITS & VEGETABLES",
                    "createdBy": "DSIGLK4EEXN7bu4BW0FutkCWBFw2",
                    "description": "",
                    "discount": "50",
                    "discounttext": "",
                    "heavydiscount": true,
                    "image": "https://ik.imagekit.io/ideasyogi/assets/fnv/veg/LADIESFINGER.jpg",
                    "imageuploaded": "FRUITS & VEGETABLES",
                    "isorganic": true,
                    "istopsaver": true,
                    "isveg": true,
                    "maxqty": "42",
                    "mrp": "60",
                    "newarrival": true,
                    "outofstock": false,
                    "price": "30",
                    "soldout": false,
                    "subcategory": "FRESH VEGETABLES",
                    "title": "LADIES FINGER",
                    "updatedBy": "DSIGLK4EEXN7bu4BW0FutkCWBFw2",
                    "uploaded": false,
                    "variations": ""
                },
                "-M851hwxSQ_-6hG4fyLA": {
                    "brand": "",
                    "category": "FRUITS & VEGETABLES",
                    "createdBy": "DSIGLK4EEXN7bu4BW0FutkCWBFw2",
                    "description": "",
                    "discount": "50",
                    "heavydiscount": true,
                    "image": "https://ik.imagekit.io/ideasyogi/assets/fnv/veg/METHI.jpg",
                    "imageuploaded": "FRUITS & VEGETABLES",
                    "isorganic": true,
                    "istopsaver": true,
                    "isveg": true,
                    "maxqty": "42",
                    "mrp": "60",
                    "newarrival": true,
                    "outofstock": false,
                    "price": "30",
                    "soldout": false,
                    "subcategory": "FRESH VEGETABLES",
                    "title": "METHI",
                    "uploaded": false,
                    "variations": ""
                },
                "-M851hx1mwnfDzp6amLN": {
                    "brand": "",
                    "category": "FRUITS & VEGETABLES",
                    "createdBy": "DSIGLK4EEXN7bu4BW0FutkCWBFw2",
                    "description": "",
                    "discount": "50",
                    "heavydiscount": true,
                    "image": "https://ik.imagekit.io/ideasyogi/assets/fnv/veg/ONION.jpg",
                    "imageuploaded": "FRUITS & VEGETABLES",
                    "isorganic": true,
                    "istopsaver": true,
                    "isveg": true,
                    "maxqty": "42",
                    "mrp": "60",
                    "newarrival": true,
                    "outofstock": false,
                    "price": "30",
                    "soldout": false,
                    "subcategory": "FRESH VEGETABLES",
                    "title": "ONION",
                    "uploaded": false,
                    "variations": ""
                },
                "-M851hx5w9icfnefyBsN": {
                    "brand": "",
                    "category": "FRUITS & VEGETABLES",
                    "createdBy": "DSIGLK4EEXN7bu4BW0FutkCWBFw2",
                    "description": "",
                    "discount": "50",
                    "discounttext": "",
                    "heavydiscount": true,
                    "image": "https://res.cloudinary.com/ideasyogi/image/upload/v1590314165/gmt1sfx4ricp4whawakx.jpg",
                    "imageuploaded": true,
                    "isorganic": true,
                    "istopsaver": true,
                    "isveg": true,
                    "maxqty": "42",
                    "mrp": "60",
                    "newarrival": true,
                    "outofstock": false,
                    "price": "30",
                    "soldout": false,
                    "subcategory": "FRESH VEGETABLES",
                    "title": "POINTED GOURD",
                    "updatedBy": "DSIGLK4EEXN7bu4BW0FutkCWBFw2",
                    "uploaded": false,
                    "variations": ""
                },
                "-M851hx9ANqhftIvDhPT": {
                    "brand": "",
                    "category": "FRUITS & VEGETABLES",
                    "createdBy": "DSIGLK4EEXN7bu4BW0FutkCWBFw2",
                    "description": "sfwtrrwtt n twerer  wrrterwwre",
                    "discount": "50",
                    "discounttext": "",
                    "heavydiscount": true,
                    "image": "https://ik.imagekit.io/ideasyogi/assets/fnv/veg/POTATO.jpg",
                    "imageuploaded": "FRUITS & VEGETABLES",
                    "isorganic": true,
                    "istopsaver": true,
                    "isveg": true,
                    "maxqty": "42",
                    "mrp": "60",
                    "newarrival": true,
                    "outofstock": false,
                    "price": "30",
                    "soldout": false,
                    "subcategory": "FRESH VEGETABLES",
                    "title": "POTATO",
                    "updatedBy": "YpiCu01wABOtncp664SnKjFatat1",
                    "uploaded": false,
                    "variations": {
                        "-M8uvca9h51QYyCbkpEF": {
                            "createdBy": "YpiCu01wABOtncp664SnKjFatat1",
                            "description": "5 kg",
                            "discount": "33",
                            "maxqty": "10",
                            "mrp": 150,
                            "outofstock": false,
                            "price": 100,
                            "soldout": false,
                            "subcategory": "",
                            "updatedBy": ""
                        }
                    }
                },
                "-M851hxDLBwSSqnsPiX2": {
                    "brand": "",
                    "category": "FRUITS & VEGETABLES",
                    "createdBy": "DSIGLK4EEXN7bu4BW0FutkCWBFw2",
                    "description": "",
                    "discount": "50",
                    "heavydiscount": true,
                    "image": "https://ik.imagekit.io/ideasyogi/assets/fnv/veg/PUMPKIN.jpg",
                    "imageuploaded": "FRUITS & VEGETABLES",
                    "isorganic": true,
                    "istopsaver": true,
                    "isveg": true,
                    "maxqty": "42",
                    "mrp": "60",
                    "newarrival": true,
                    "outofstock": false,
                    "price": "30",
                    "soldout": false,
                    "subcategory": "FRESH VEGETABLES",
                    "title": "PUMPKIN",
                    "uploaded": false,
                    "variations": ""
                },
                "-M851hxG4mFP698fbsep": {
                    "brand": "",
                    "category": "FRUITS & VEGETABLES",
                    "createdBy": "DSIGLK4EEXN7bu4BW0FutkCWBFw2",
                    "description": "",
                    "discount": "50",
                    "heavydiscount": true,
                    "image": "https://ik.imagekit.io/ideasyogi/assets/fnv/veg/RADDISH.jpg",
                    "imageuploaded": "FRUITS & VEGETABLES",
                    "isorganic": true,
                    "istopsaver": true,
                    "isveg": true,
                    "maxqty": "42",
                    "mrp": "60",
                    "newarrival": true,
                    "outofstock": false,
                    "price": "30",
                    "soldout": false,
                    "subcategory": "FRESH VEGETABLES",
                    "title": "RADDISH",
                    "uploaded": false,
                    "variations": ""
                },
                "-M851hxJYYtPWGyeAIv8": {
                    "brand": "",
                    "category": "FRUITS & VEGETABLES",
                    "createdBy": "DSIGLK4EEXN7bu4BW0FutkCWBFw2",
                    "description": "",
                    "discount": "50",
                    "discounttext": "",
                    "heavydiscount": true,
                    "image": "https://res.cloudinary.com/ideasyogi/image/upload/v1590314138/cnvb066qdbyyxrw8bcps.jpg",
                    "imageuploaded": true,
                    "isorganic": true,
                    "istopsaver": true,
                    "isveg": true,
                    "maxqty": "42",
                    "mrp": "60",
                    "newarrival": true,
                    "outofstock": false,
                    "price": "30",
                    "soldout": false,
                    "subcategory": "FRESH VEGETABLES",
                    "title": "RIDGE GOURD",
                    "updatedBy": "DSIGLK4EEXN7bu4BW0FutkCWBFw2",
                    "uploaded": false,
                    "variations": ""
                },
                "-M851hxNgqShgm4rpX8E": {
                    "brand": "",
                    "category": "FRUITS & VEGETABLES",
                    "createdBy": "DSIGLK4EEXN7bu4BW0FutkCWBFw2",
                    "description": "",
                    "discount": "50",
                    "discounttext": "",
                    "heavydiscount": true,
                    "image": "https://ik.imagekit.io/ideasyogi/assets/fnv/veg/SWEETPOTATO.jpg",
                    "imageuploaded": "FRUITS & VEGETABLES",
                    "isorganic": true,
                    "istopsaver": true,
                    "isveg": true,
                    "maxqty": "42",
                    "mrp": "60",
                    "newarrival": true,
                    "outofstock": false,
                    "price": "30",
                    "soldout": false,
                    "subcategory": "FRESH VEGETABLES",
                    "title": "SWEET POTATO",
                    "updatedBy": "DSIGLK4EEXN7bu4BW0FutkCWBFw2",
                    "uploaded": false,
                    "variations": ""
                },
                "-M851hxQ-iirfHMLZpmf": {
                    "brand": "",
                    "category": "FRUITS & VEGETABLES",
                    "createdBy": "DSIGLK4EEXN7bu4BW0FutkCWBFw2",
                    "description": "",
                    "discount": "50",
                    "discounttext": "",
                    "heavydiscount": true,
                    "image": "https://res.cloudinary.com/ideasyogi/image/upload/v1590314104/guexbi9clfwvmghjsrv4.jpg",
                    "imageuploaded": true,
                    "isorganic": true,
                    "istopsaver": true,
                    "isveg": true,
                    "maxqty": "42",
                    "mrp": "60",
                    "newarrival": true,
                    "outofstock": false,
                    "price": "30",
                    "soldout": false,
                    "subcategory": "FRESH VEGETABLES",
                    "title": "TENDI",
                    "updatedBy": "DSIGLK4EEXN7bu4BW0FutkCWBFw2",
                    "uploaded": false,
                    "variations": ""
                },
                "-M851hxVYiq2XzDCSG7g": {
                    "brand": "",
                    "category": "FRUITS & VEGETABLES",
                    "createdBy": "DSIGLK4EEXN7bu4BW0FutkCWBFw2",
                    "description": "",
                    "discount": "50",
                    "heavydiscount": true,
                    "image": "https://ik.imagekit.io/ideasyogi/assets/fnv/veg/TOMATO.jpg",
                    "imageuploaded": "FRUITS & VEGETABLES",
                    "isorganic": true,
                    "istopsaver": true,
                    "isveg": true,
                    "maxqty": "42",
                    "mrp": "60",
                    "newarrival": true,
                    "outofstock": false,
                    "price": "30",
                    "soldout": false,
                    "subcategory": "FRESH VEGETABLES",
                    "title": "TOMATO",
                    "uploaded": false,
                    "variations": ""
                },
                "-M851hxYZuKTEgasNOpN": {
                    "brand": "",
                    "category": "FRUITS & VEGETABLES",
                    "createdBy": "DSIGLK4EEXN7bu4BW0FutkCWBFw2",
                    "description": "",
                    "discount": "50",
                    "heavydiscount": true,
                    "image": "https://ik.imagekit.io/ideasyogi/assets/fnv/veg/TURAI.jpg",
                    "imageuploaded": "FRUITS & VEGETABLES",
                    "isorganic": true,
                    "istopsaver": true,
                    "isveg": true,
                    "maxqty": "42",
                    "mrp": "60",
                    "newarrival": true,
                    "outofstock": false,
                    "price": "30",
                    "soldout": false,
                    "subcategory": "FRESH VEGETABLES",
                    "title": "TURAI",
                    "uploaded": false,
                    "variations": ""
                },
                "-M851hxak_YWb8bDbRek": {
                    "brand": "",
                    "category": "FRUITS & VEGETABLES",
                    "createdBy": "DSIGLK4EEXN7bu4BW0FutkCWBFw2",
                    "description": "",
                    "discount": "50",
                    "heavydiscount": true,
                    "image": "https://ik.imagekit.io/ideasyogi/assets/fnv/veg/ZUCCHINI.jpg",
                    "imageuploaded": "FRUITS & VEGETABLES",
                    "isorganic": true,
                    "istopsaver": true,
                    "isveg": true,
                    "maxqty": "42",
                    "mrp": "60",
                    "newarrival": true,
                    "outofstock": false,
                    "price": "30",
                    "soldout": false,
                    "subcategory": "FRESH VEGETABLES",
                    "title": "ZUCCHINI",
                    "uploaded": false,
                    "variations": ""
                },
                "-M851hxdZyLMX0_qZ1s9": {
                    "brand": "",
                    "category": "FRUITS & VEGETABLES",
                    "createdBy": "DSIGLK4EEXN7bu4BW0FutkCWBFw2",
                    "description": "",
                    "discount": "50",
                    "heavydiscount": true,
                    "image": "https://ik.imagekit.io/ideasyogi/assets/fnv/fruits/APPLE.jpg",
                    "imageuploaded": "FRUITS & VEGETABLES",
                    "isorganic": true,
                    "istopsaver": true,
                    "isveg": true,
                    "maxqty": 41,
                    "mrp": "60",
                    "newarrival": true,
                    "outofstock": false,
                    "price": "30",
                    "soldout": false,
                    "subcategory": "FRESH FRUITS",
                    "title": "APPLE",
                    "uploaded": false,
                    "variations": ""
                },
                "-M851hxg_nGzcAUsTMjp": {
                    "brand": "",
                    "category": "FRUITS & VEGETABLES",
                    "createdBy": "DSIGLK4EEXN7bu4BW0FutkCWBFw2",
                    "description": "",
                    "discount": "50",
                    "discounttext": "",
                    "heavydiscount": true,
                    "image": "https://ik.imagekit.io/ideasyogi/assets/fnv/fruits/CUSTARDAPPLE.jpg",
                    "imageuploaded": "FRUITS & VEGETABLES",
                    "isorganic": true,
                    "istopsaver": true,
                    "isveg": true,
                    "maxqty": "42",
                    "mrp": "60",
                    "newarrival": true,
                    "outofstock": false,
                    "price": "30",
                    "soldout": false,
                    "subcategory": "FRESH FRUITS",
                    "title": "CUSTARD APPLE",
                    "updatedBy": "DSIGLK4EEXN7bu4BW0FutkCWBFw2",
                    "uploaded": false,
                    "variations": ""
                },
                "-M851hxkmObeQJ_llO91": {
                    "brand": "",
                    "category": "FRUITS & VEGETABLES",
                    "createdBy": "DSIGLK4EEXN7bu4BW0FutkCWBFw2",
                    "description": "",
                    "discount": "50",
                    "heavydiscount": true,
                    "image": "https://ik.imagekit.io/ideasyogi/assets/fnv/fruits/GUVAVA.jpg",
                    "imageuploaded": "FRUITS & VEGETABLES",
                    "isorganic": true,
                    "istopsaver": true,
                    "isveg": true,
                    "maxqty": 38,
                    "mrp": "60",
                    "newarrival": true,
                    "outofstock": false,
                    "price": "30",
                    "soldout": false,
                    "subcategory": "FRESH FRUITS",
                    "title": "GUVAVA",
                    "uploaded": false,
                    "variations": ""
                },
                "-M851hxnWRns72Znc5jY": {
                    "brand": "",
                    "category": "FRUITS & VEGETABLES",
                    "createdBy": "DSIGLK4EEXN7bu4BW0FutkCWBFw2",
                    "description": "",
                    "discount": "50",
                    "heavydiscount": true,
                    "image": "https://ik.imagekit.io/ideasyogi/assets/fnv/fruits/MOSAMBI.jpg",
                    "imageuploaded": "FRUITS & VEGETABLES",
                    "isorganic": true,
                    "istopsaver": true,
                    "isveg": true,
                    "maxqty": 38,
                    "mrp": "60",
                    "newarrival": true,
                    "outofstock": false,
                    "price": "30",
                    "soldout": false,
                    "subcategory": "FRESH FRUITS",
                    "title": "MOSAMBI",
                    "uploaded": false,
                    "variations": ""
                },
                "-M851hxqVgp-sCzxBBKp": {
                    "brand": "",
                    "category": "FRUITS & VEGETABLES",
                    "createdBy": "DSIGLK4EEXN7bu4BW0FutkCWBFw2",
                    "description": "",
                    "discount": "50",
                    "discounttext": "",
                    "heavydiscount": true,
                    "image": "https://res.cloudinary.com/ideasyogi/image/upload/v1590314068/zypemi50y5aaruoiihy5.jpg",
                    "imageuploaded": true,
                    "isorganic": true,
                    "istopsaver": true,
                    "isveg": true,
                    "maxqty": 41,
                    "mrp": "60",
                    "newarrival": true,
                    "outofstock": false,
                    "price": "30",
                    "soldout": false,
                    "subcategory": "FRUITS",
                    "title": "MUSK MELON",
                    "updatedBy": "DSIGLK4EEXN7bu4BW0FutkCWBFw2",
                    "uploaded": false,
                    "variations": ""
                },
                "-M851hxuQ0vebJF3uD6p": {
                    "brand": "",
                    "category": "FRUITS & VEGETABLES",
                    "createdBy": "DSIGLK4EEXN7bu4BW0FutkCWBFw2",
                    "description": "",
                    "discount": "50",
                    "heavydiscount": true,
                    "image": "https://ik.imagekit.io/ideasyogi/assets/fnv/fruits/WATERMELON.jpg",
                    "imageuploaded": "FRUITS & VEGETABLES",
                    "isorganic": true,
                    "istopsaver": true,
                    "isveg": true,
                    "maxqty": 38,
                    "mrp": "60",
                    "newarrival": true,
                    "outofstock": false,
                    "price": "30",
                    "soldout": false,
                    "subcategory": "FRESH FRUITS",
                    "title": "WATERMELON",
                    "uploaded": false,
                    "variations": ""
                },
                "-M851hxxeHULCUksd8Y6": {
                    "brand": "",
                    "category": "FRUITS & VEGETABLES",
                    "createdBy": "DSIGLK4EEXN7bu4BW0FutkCWBFw2",
                    "description": "",
                    "discount": "50",
                    "heavydiscount": true,
                    "image": "https://ik.imagekit.io/ideasyogi/assets/fnv/fruits/POMOGRANTE.jpg",
                    "imageuploaded": "FRUITS & VEGETABLES",
                    "isorganic": true,
                    "istopsaver": true,
                    "isveg": true,
                    "maxqty": 39,
                    "mrp": "60",
                    "newarrival": true,
                    "outofstock": false,
                    "price": "30",
                    "soldout": false,
                    "subcategory": "FRESH FRUITS",
                    "title": "POMOGRANTE",
                    "uploaded": false,
                    "variations": ""
                },
                "-M851hy-62g3_TUBnUjC": {
                    "brand": "",
                    "category": "FRUITS & VEGETABLES",
                    "createdBy": "DSIGLK4EEXN7bu4BW0FutkCWBFw2",
                    "description": "",
                    "discount": "50",
                    "heavydiscount": true,
                    "image": "https://ik.imagekit.io/ideasyogi/assets/fnv/fruits/ORANGES.jpg",
                    "imageuploaded": "FRUITS & VEGETABLES",
                    "isorganic": true,
                    "istopsaver": true,
                    "isveg": true,
                    "maxqty": 34,
                    "mrp": "60",
                    "newarrival": true,
                    "outofstock": false,
                    "price": "30",
                    "soldout": false,
                    "subcategory": "FRESH FRUITS",
                    "title": "ORANGES",
                    "uploaded": false,
                    "variations": ""
                },
                "-M851hy2JPLOujN2kJsj": {
                    "brand": "",
                    "category": "FRUITS & VEGETABLES",
                    "createdBy": "DSIGLK4EEXN7bu4BW0FutkCWBFw2",
                    "description": "",
                    "discount": "50",
                    "heavydiscount": true,
                    "image": "https://ik.imagekit.io/ideasyogi/assets/fnv/fruits/PAPAYA.jpg",
                    "imageuploaded": "FRUITS & VEGETABLES",
                    "isorganic": true,
                    "istopsaver": true,
                    "isveg": true,
                    "maxqty": 33,
                    "mrp": "60",
                    "newarrival": true,
                    "outofstock": false,
                    "price": "30",
                    "soldout": false,
                    "subcategory": "FRESH FRUITS",
                    "title": "PAPAYA",
                    "uploaded": false,
                    "variations": ""
                },
                "-M8dHYYTHGIOk3q3-pfP": {
                    "brand": "",
                    "category": "FRUITS & VEGETABLES",
                    "createdBy": "YpiCu01wABOtncp664SnKjFatat1",
                    "description": "Xc",
                    "discount": "0",
                    "discounttext": "",
                    "heavydiscount": true,
                    "image": "https://res.cloudinary.com/ideasyogi/image/upload/v1590904401/syzpwvtukc7usoi2k1wf.jpg",
                    "imageuploaded": true,
                    "isorganic": true,
                    "istopsaver": true,
                    "isveg": true,
                    "maxqty": 4,
                    "mrp": 200,
                    "newarrival": true,
                    "outofstock": false,
                    "price": 200,
                    "soldout": false,
                    "subcategory": "VEGETABLES",
                    "title": "ONION",
                    "updatedBy": "YpiCu01wABOtncp664SnKjFatat1"
                }
            },
            "shoplandingurls": {
                "-M7YmOfzFZBoGXDiWojJ": {
                    "active": true,
                    "createdBy": "DSIGLK4EEXN7bu4BW0FutkCWBFw2",
                    "description": "",
                    "image": "https://res.cloudinary.com/ideasyogi/image/upload/v1589738314/wr99pqqwmegaf04tk9wi.jpg",
                    "imageuploaded": true,
                    "title": "O1",
                    "updatedBy": "DSIGLK4EEXN7bu4BW0FutkCWBFw2"
                },
                "-M7YmTnW1C6lUfAeLh2m": {
                    "active": true,
                    "createdBy": "DSIGLK4EEXN7bu4BW0FutkCWBFw2",
                    "description": "",
                    "image": "https://res.cloudinary.com/ideasyogi/image/upload/v1589738335/rvxipvmn3ojlal1bpdon.jpg",
                    "imageuploaded": true,
                    "title": "O2",
                    "updatedBy": "DSIGLK4EEXN7bu4BW0FutkCWBFw2"
                },
                "-M7YmZiEcRFm1tlqdK_Y": {
                    "active": true,
                    "createdBy": "DSIGLK4EEXN7bu4BW0FutkCWBFw2",
                    "description": "",
                    "image": "https://res.cloudinary.com/ideasyogi/image/upload/v1589738358/gsyofwnjumd9oeoumntv.jpg",
                    "imageuploaded": true,
                    "title": "O3",
                    "updatedBy": "DSIGLK4EEXN7bu4BW0FutkCWBFw2"
                },
                "-M7YmdpX3a5P3vCT7FlW": {
                    "active": true,
                    "createdBy": "DSIGLK4EEXN7bu4BW0FutkCWBFw2",
                    "description": "",
                    "image": "https://res.cloudinary.com/ideasyogi/image/upload/v1589738380/aq64pgnk8tdywst72cqj.jpg",
                    "imageuploaded": true,
                    "title": "O4",
                    "updatedBy": "DSIGLK4EEXN7bu4BW0FutkCWBFw2"
                },
                "-M7Ymj4hvxYq7mhyXJ2N": {
                    "active": true,
                    "createdBy": "DSIGLK4EEXN7bu4BW0FutkCWBFw2",
                    "description": "",
                    "image": "https://res.cloudinary.com/ideasyogi/image/upload/v1589738401/nxmwikpy1jvjrd4ttqwd.jpg",
                    "imageuploaded": true,
                    "title": "O5",
                    "updatedBy": "DSIGLK4EEXN7bu4BW0FutkCWBFw2"
                }
            }
        }
    }
}